{
	"info": {
		"_postman_id": "179bd59a-b668-4b16-95fb-2a01d73d30a5",
		"name": "S36",
		"schema": "https://schema.getpostman.com/json/collection/v2.1.0/collection.json",
		"_exporter_id": "26696343"
	},
	"item": [
		{
			"name": "GET ALL TASKS",
			"request": {
				"method": "GET",
				"header": [],
				"url": {
					"raw": "localhost:4000/tasks/",
					"host": [
						"localhost"
					],
					"port": "4000",
					"path": [
						"tasks",
						""
					]
				}
			},
			"response": []
		},
		{
			"name": "CREATE NEW TASK",
			"request": {
				"method": "POST",
				"header": [],
				"body": {
					"mode": "raw",
					"raw": "{\n    \"name\":\"Old Name\"\n}",
					"options": {
						"raw": {
							"language": "json"
						}
					}
				},
				"url": {
					"raw": "localhost:4000/tasks/",
					"host": [
						"localhost"
					],
					"port": "4000",
					"path": [
						"tasks",
						""
					]
				}
			},
			"response": []
		},
		{
			"name": "DELETE TASK",
			"request": {
				"method": "DELETE",
				"header": [],
				"url": {
					"raw": "localhost:4000/tasks/645316ec7da8b1f09cc4cf3f",
					"host": [
						"localhost"
					],
					"port": "4000",
					"path": [
						"tasks",
						"645316ec7da8b1f09cc4cf3f"
					]
				}
			},
			"response": []
		},
		{
			"name": "UPDATE A TASK",
			"request": {
				"method": "PUT",
				"header": [],
				"body": {
					"mode": "raw",
					"raw": "{\n    \"name\": \"Updated Name\"\n}",
					"options": {
						"raw": {
							"language": "json"
						}
					}
				},
				"url": {
					"raw": "localhost:4000/tasks/6453714ad8a4e57bf4dfe5ee",
					"host": [
						"localhost"
					],
					"port": "4000",
					"path": [
						"tasks",
						"6453714ad8a4e57bf4dfe5ee"
					]
				}
			},
			"response": []
		},
		{
			"name": "get SPECIFIC task",
			"request": {
				"method": "GET",
				"header": [],
				"url": {
					"raw": "localhost:4000/tasks/6453714ad8a4e57bf4dfe5ee",
					"host": [
						"localhost"
					],
					"port": "4000",
					"path": [
						"tasks",
						"6453714ad8a4e57bf4dfe5ee"
					]
				}
			},
			"response": []
		},
		{
			"name": "Change STATUS to complete",
			"request": {
				"method": "PUT",
				"header": [],
				"url": {
					"raw": "localhost:4000/tasks/645362a83f27861295b9f4cd/complete",
					"host": [
						"localhost"
					],
					"port": "4000",
					"path": [
						"tasks",
						"645362a83f27861295b9f4cd",
						"complete"
					]
				}
			},
			"response": []
		}
	]
}